[
    {
        "id": 1,
        "first_name": "Coleman",
        "last_name": "Clutterham",
        "email": "cclutterham0@biglobe.ne.jp",
        "gender": "Male"
    },
    {
        "id": 2,
        "first_name": "Hailee",
        "last_name": "Brilleman",
        "email": "hbrilleman1@un.org",
        "gender": "Female"
    },
    {
        "id": 3,
        "first_name": "Kim",
        "last_name": "McCaughren",
        "email": "kmccaughren2@mashable.com",
        "gender": "Male"
    },
    {
        "id": 4,
        "first_name": "Randy",
        "last_name": "Kringe",
        "email": "rkringe3@yelp.com",
        "gender": "Female"
    },
    {
        "id": 5,
        "first_name": "Reilly",
        "last_name": "Keenlayside",
        "email": "rkeenlayside4@usgs.gov",
        "gender": "Male"
    },
    {
        "id": 6,
        "first_name": "Emmalynn",
        "last_name": "Clevely",
        "email": "eclevely5@ebay.com",
        "gender": "Female"
    },
    {
        "id": 7,
        "first_name": "Trstram",
        "last_name": "Merriman",
        "email": "tmerriman6@wikimedia.org",
        "gender": "Male"
    },
    {
        "id": 8,
        "first_name": "Gert",
        "last_name": "Merrilees",
        "email": "gmerrilees7@washingtonpost.com",
        "gender": "Female"
    },
    {
        "id": 9,
        "first_name": "Batsheva",
        "last_name": "Sprionghall",
        "email": "bsprionghall8@rakuten.co.jp",
        "gender": "Female"
    },
    {
        "id": 10,
        "first_name": "Franklin",
        "last_name": "Carthew",
        "email": "fcarthew9@ucoz.ru",
        "gender": "Male"
    },
    {
        "id": 11,
        "first_name": "Aloin",
        "last_name": "Peddar",
        "email": "apeddara@liveinternet.ru",
        "gender": "Non-binary"
    },
    {
        "id": 12,
        "first_name": "Josiah",
        "last_name": "Collens",
        "email": "jcollensb@engadget.com",
        "gender": "Male"
    },
    {
        "id": 13,
        "first_name": "Brendis",
        "last_name": "Lidgely",
        "email": "blidgelyc@google.ca",
        "gender": "Male"
    },
    {
        "id": 14,
        "first_name": "Dick",
        "last_name": "Godfroy",
        "email": "dgodfroyd@adobe.com",
        "gender": "Male"
    },
    {
        "id": 15,
        "first_name": "Rebekkah",
        "last_name": "Stansall",
        "email": "rstansalle@amazon.co.uk",
        "gender": "Female"
    },
    {
        "id": 16,
        "first_name": "Cullie",
        "last_name": "O'Farris",
        "email": "cofarrisf@hc360.com",
        "gender": "Male"
    },
    {
        "id": 17,
        "first_name": "Leonerd",
        "last_name": "Moiser",
        "email": "lmoiserg@xinhuanet.com",
        "gender": "Male"
    },
    {
        "id": 18,
        "first_name": "Deck",
        "last_name": "Bradwell",
        "email": "dbradwellh@upenn.edu",
        "gender": "Non-binary"
    },
    {
        "id": 19,
        "first_name": "Angelita",
        "last_name": "Trousdell",
        "email": "atrousdelli@t-online.de",
        "gender": "Female"
    },
    {
        "id": 20,
        "first_name": "Dante",
        "last_name": "Guilder",
        "email": "dguilderj@homestead.com",
        "gender": "Male"
    },
    {
        "id": 21,
        "first_name": "Armstrong",
        "last_name": "Dalgleish",
        "email": "adalgleishk@ifeng.com",
        "gender": "Agender"
    },
    {
        "id": 22,
        "first_name": "Antonino",
        "last_name": "Gambrell",
        "email": "agambrelll@fastcompany.com",
        "gender": "Male"
    },
    {
        "id": 23,
        "first_name": "Austen",
        "last_name": "Inkin",
        "email": "ainkinm@mtv.com",
        "gender": "Male"
    },
    {
        "id": 24,
        "first_name": "Baldwin",
        "last_name": "Mousley",
        "email": "bmousleyn@fotki.com",
        "gender": "Male"
    },
    {
        "id": 25,
        "first_name": "Massimiliano",
        "last_name": "Kleen",
        "email": "mkleeno@cbsnews.com",
        "gender": "Male"
    },
    {
        "id": 26,
        "first_name": "Jack",
        "last_name": "Boone",
        "email": "jboonep@stumbleupon.com",
        "gender": "Male"
    },
    {
        "id": 27,
        "first_name": "Durand",
        "last_name": "Ceaplen",
        "email": "dceaplenq@smugmug.com",
        "gender": "Agender"
    },
    {
        "id": 28,
        "first_name": "Iolanthe",
        "last_name": "Kilby",
        "email": "ikilbyr@npr.org",
        "gender": "Female"
    },
    {
        "id": 29,
        "first_name": "Ugo",
        "last_name": "Becraft",
        "email": "ubecrafts@cdbaby.com",
        "gender": "Male"
    },
    {
        "id": 30,
        "first_name": "Blakeley",
        "last_name": "Stud",
        "email": "bstudt@plala.or.jp",
        "gender": "Female"
    }
]